{
  "data": [
      {
          "id": 1,
          "name": "MENU_1",
          "label": "Reporte Resumido",
          "iconName": "coronita:bookstore",
          "path": "/finances-app/spectrum-app/summary-report",
          "order": 1,
          "componentType": {
              "id": 1,
              "name": "MENU"
          }
      },
      {
          "id": 2,
          "name": "MENU_2",
          "label": "Reporte Detallado",
          "iconName": "coronita:ticket",
          "path": "/finances-app/spectrum-app/detail-report",
          "order": 2,
          "componentType": {
              "id": 1,
              "name": "MENU"
          }
      },
      {
          "id": 3,
          "name": "MENU_3",
          "label": "Descargas Pendientes",
          "iconName": "coronita:download",
          "path": "/finances-app/spectrum-app/downloads-report",
          "order": 3,
          "componentType": {
              "id": 1,
              "name": "MENU"
          }
      }
  ]
}